<?xml version="1.0" encoding="utf-8"?>
<!-- Generator: Adobe Illustrator 19.2.1, SVG Export Plug-In . SVG Version: 6.00 Build 0)  -->
<svg version="1.1" id="Layer_1" xmlns="http://www.w3.org/2000/svg" xmlns:xlink="http://www.w3.org/1999/xlink" x="0px" y="0px"
	 viewBox="0 0 327.7 212.3" enable-background="new 0 0 327.7 212.3" xml:space="preserve">
<rect x="63.5" y="55.6" fill="#DB9D36" width="181.4" height="156.7"/>
<rect x="225.8" y="31.5" transform="matrix(0.8269 -0.5623 0.5623 0.8269 27.9329 162.9679)" fill="#DB9D36" width="105.7" height="9.2"/>
<rect x="-7.7" y="38.1" transform="matrix(-0.7793 -0.6266 0.6266 -0.7793 53.6341 104.3142)" fill="#DB9D36" width="105.7" height="9.2"/>
<g>
</g>
<g>
</g>
<g>
</g>
<g>
</g>
<g>
</g>
<g>
</g>
<g>
</g>
<g>
</g>
<g>
</g>
<g>
</g>
<g>
</g>
<g>
</g>
<g>
</g>
<g>
</g>
<g>
</g>
</svg>
