<?xml version="1.0" encoding="utf-8"?>
<!-- Generator: Adobe Illustrator 18.0.0, SVG Export Plug-In . SVG Version: 6.00 Build 0)  -->
<!DOCTYPE svg PUBLIC "-//W3C//DTD SVG 1.1//EN" "http://www.w3.org/Graphics/SVG/1.1/DTD/svg11.dtd">
<svg version="1.1" id="Layer_1" xmlns="http://www.w3.org/2000/svg" xmlns:xlink="http://www.w3.org/1999/xlink" x="0px" y="0px"
	 viewBox="0 462 612 330" enable-background="new 0 462 612 330" xml:space="preserve">
<text transform="matrix(1 0 0 1 205 501.6895)" fill="#FFFFFF" font-family="'PTSans-Bold'" font-size="16.8278">Search by Features, Not Price</text>
<text transform="matrix(1 0 0 1 16 543.7369)" enable-background="new    "><tspan x="0" y="0" fill="#FFFFFF" font-family="'PTSans-Bold'" font-size="14">3.0M</tspan><tspan x="0" y="40" fill="#FFFFFF" font-family="'PTSans-Bold'" font-size="14">2.5M</tspan><tspan x="0" y="80" fill="#FFFFFF" font-family="'PTSans-Bold'" font-size="14">1.5M</tspan><tspan x="0" y="120" fill="#FFFFFF" font-family="'PTSans-Bold'" font-size="14">1M</tspan><tspan x="0" y="160" fill="#FFFFFF" font-family="'PTSans-Bold'" font-size="14">500K</tspan><tspan x="0" y="200" fill="#FFFFFF" font-family="'PTSans-Bold'" font-size="14">250K</tspan></text>
<text transform="matrix(1 0 0 1 546.3619 538.4824)" fill="#FFFFFF" font-family="'PTSans-Bold'" font-size="10.0967">Features</text>
<text transform="matrix(1 0 0 1 546.3619 552.7861)" fill="#FFFFFF" font-family="'PTSans-Bold'" font-size="10.0967">Price</text>
<line fill="none" stroke="#FFFFFF" stroke-miterlimit="10" x1="77.7" y1="683.1" x2="592.8" y2="683.1"/>
<line fill="none" stroke="#FFFFFF" stroke-miterlimit="10" x1="77.7" y1="725.7" x2="592.8" y2="725.7"/>
<rect x="508.5" y="533.5" fill="#404446" width="30.3" height="4.1"/>
<rect x="508.5" y="548.7" fill="#E3D569" width="30.3" height="4.1"/>
<g>
	<g>
		<path fill="#404446" d="M84.4,721.6c37.4-23.4,74.6-46.9,112-70.3c32.1-20.1,67.1-42,106.2-41.8c35.5,0.1,66.8,19.3,96.6,36.3
			c15.4,8.8,31,17.5,47.5,24c13.4,5.1,27.8,7.5,42.2,8.8c16.2,1.5,32.5,1.4,48.7-0.1c14.8-1.3,29.8-3.8,43.8-8.5
			c3.2-1.1,6.2-2.3,9.3-3.6c2-0.8,2.4-3.8,1.4-5.6c-1.2-2.1-3.5-2.3-5.6-1.4c-12.8,5.6-26.8,8.4-40.6,10.1
			c-16.2,2-32.5,2.5-48.7,1.6c-14.5-0.8-29.1-2.8-43-7.2c-16-5.1-31-13.6-45.5-21.8c-30.3-17.2-60.9-36.8-96.3-40.2
			c-39.3-3.9-75.8,15.1-108.3,35c-36.9,22.5-73.4,45.9-110.1,69c-4.6,2.9-9.3,5.8-14,8.8C76,717.5,80,724.4,84.4,721.6L84.4,721.6z"
			/>
	</g>
</g>
<g>
	<g>
		<path fill="#E3D569" d="M82.8,723.1c66.5-12.9,133.3-24.2,200.8-29.4c66.5-5,134.1-2.6,198.9,14.3c34.1,8.9,70.8,21.7,105.8,9.9
			c4.9-1.7,2.8-9.4-2.1-7.7c-31,10.4-63.6,0.3-93.9-7.9c-32.1-8.7-65-14.4-98.2-17.1c-67.1-5.4-134.7,0.9-201.2,10.6
			c-37.6,5.5-75,12.3-112.2,19.5C75.6,716.3,77.7,724.1,82.8,723.1L82.8,723.1z"/>
	</g>
</g>
<circle fill="#BCBCBC" stroke="#404446" stroke-width="5" stroke-miterlimit="10" cx="340.8" cy="687.2" r="9.1"/>
<circle fill="#BCBCBC" stroke="#404446" stroke-width="5" stroke-miterlimit="10" cx="312.8" cy="605.6" r="9.1"/>
<circle fill="#BCBCBC" stroke="#404446" stroke-width="5" stroke-miterlimit="10" cx="527.4" cy="674.8" r="9.1"/>
<circle fill="#BCBCBC" stroke="#404446" stroke-width="5" stroke-miterlimit="10" cx="553.1" cy="718.2" r="9.1"/>
<circle fill="#BCBCBC" stroke="#404446" stroke-width="5" stroke-miterlimit="10" cx="139.1" cy="681.8" r="9.1"/>
<circle fill="#BCBCBC" stroke="#404446" stroke-width="5" stroke-miterlimit="10" cx="117" cy="712.3" r="9.1"/>
<text transform="matrix(1 0 0 1 349.8013 717.4053)" fill="#FFFFFF" font-family="'PTSans-Bold'" font-size="12.0985">Price search = flat market</text>
<polyline fill="none" stroke="#FFFFFF" stroke-width="5" stroke-miterlimit="10" points="599.1,752 58.2,752 58.2,528.6 "/>
<g>
	<text transform="matrix(1 0 0 1 63.2046 775)" fill="#FFFFFF" font-family="'PTSans-Bold'" font-size="14" letter-spacing="1">0</text>
</g>
<g>
	<text transform="matrix(1 0 0 1 119.2046 775)" fill="#FFFFFF" font-family="'PTSans-Bold'" font-size="14" letter-spacing="1">3</text>
</g>
<g>
	<text transform="matrix(1 0 0 1 175.2046 775)" fill="#FFFFFF" font-family="'PTSans-Bold'" font-size="14" letter-spacing="1">6</text>
</g>
<g>
	<text transform="matrix(1 0 0 1 231.2046 775)" fill="#FFFFFF" font-family="'PTSans-Bold'" font-size="14" letter-spacing="1">9</text>
</g>
<g>
	<text transform="matrix(1 0 0 1 287.2046 775)" fill="#FFFFFF" font-family="'PTSans-Bold'" font-size="14" letter-spacing="1">12</text>
</g>
<g>
	<text transform="matrix(1 0 0 1 343.2046 775)" fill="#FFFFFF" font-family="'PTSans-Bold'" font-size="14" letter-spacing="1">15</text>
</g>
<g>
	<text transform="matrix(1 0 0 1 399.2046 775)" fill="#FFFFFF" font-family="'PTSans-Bold'" font-size="14" letter-spacing="1">18</text>
</g>
<g>
	<text transform="matrix(1 0 0 1 455.2046 775)" fill="#FFFFFF" font-family="'PTSans-Bold'" font-size="14" letter-spacing="1">21</text>
</g>
<g>
	<text transform="matrix(1 0 0 1 511.2046 775)" fill="#FFFFFF" font-family="'PTSans-Bold'" font-size="14" letter-spacing="1">24</text>
</g>
<g>
	<text transform="matrix(1 0 0 1 567.2046 775)" fill="#FFFFFF" font-family="'PTSans-Bold'" font-size="14" letter-spacing="1">27</text>
</g>
</svg>
