<?xml version="1.0" encoding="iso-8859-1"?>
<!-- Generator: Adobe Illustrator 18.0.0, SVG Export Plug-In . SVG Version: 6.00 Build 0)  -->
<!DOCTYPE svg PUBLIC "-//W3C//DTD SVG 1.1//EN" "http://www.w3.org/Graphics/SVG/1.1/DTD/svg11.dtd" [
	<!ENTITY ns_flows "http://ns.adobe.com/Flows/1.0/">
	<!ENTITY ns_extend "http://ns.adobe.com/Extensibility/1.0/">
	<!ENTITY ns_ai "http://ns.adobe.com/AdobeIllustrator/10.0/">
	<!ENTITY ns_graphs "http://ns.adobe.com/Graphs/1.0/">
]>
<svg version="1.1" id="Layer_1" xmlns:x="&ns_extend;" xmlns:i="&ns_ai;" xmlns:graph="&ns_graphs;"
	 xmlns="http://www.w3.org/2000/svg" xmlns:xlink="http://www.w3.org/1999/xlink" xmlns:a="http://ns.adobe.com/AdobeSVGViewerExtensions/3.0/"
	 x="0px" y="0px" viewBox="0 0 266.727 231.047" style="enable-background:new 0 0 266.727 231.047;" xml:space="preserve">
<path style="opacity:0.13;fill:#231F20;adobe-blending-mode:multiply;" d="M74.205,88.62l-11.296-0.182l-6.923,10.112
	c0,0-2.918,2.261-1.548,3.826c1.275,1.458,6.832,1.367,6.832,1.367l-4.1,8.654c0,0-0.181,2.186,2.095,1.093
	c2.277-1.093,4.555-6.013,4.555-6.013s10.294,0.547,14.94-0.728c3.154-0.866,6.196-6.013,6.196-6.013s2.368-0.456,2.732,0.638
	c0.364,1.093,1.184,2.095,4.19,1.73c3.006-0.365,4.573-0.976,5.922-2.46C98.711,99.643,99.166,92.446,74.205,88.62z"/>
<g style="adobe-knockout:true;">
	<g style="adobe-knockout:false;enable-background:new    ;">
		<g style="enable-background:new    ;">
			<defs>
				<path id="SVGID_79_" style="enable-background:new    ;" d="M52.327,121.117c0.006-1.756-1.294-3.516-3.908-4.879
					c-5.317-2.772-14.062-2.85-19.533-0.173c-2.78,1.361-4.179,3.171-4.185,4.984l0.002-0.579c0.006-1.813,1.405-3.624,4.186-4.984
					c5.469-2.676,14.216-2.599,19.533,0.173c2.614,1.363,3.914,3.124,3.908,4.879C52.328,120.712,52.328,120.944,52.327,121.117z"/>
			</defs>
			<clipPath id="SVGID_2_">
				<use xlink:href="#SVGID_79_"  style="overflow:visible;"/>
			</clipPath>
			<g style="clip-path:url(#SVGID_2_);enable-background:new    ;">
				<path style="fill:#F7B44F;" d="M52.327,121.117l0.002-0.58c0.006-1.755-1.294-3.516-3.908-4.879
					c-5.317-2.772-14.063-2.849-19.533-0.173c-2.781,1.361-4.18,3.171-4.186,4.984l-0.002,0.579
					c0.006-1.813,1.405-3.623,4.185-4.984c5.471-2.677,14.216-2.599,19.533,0.173C51.033,117.601,52.333,119.361,52.327,121.117
					L52.327,121.117z"/>
			</g>
		</g>
		<g style="enable-background:new    ;">
			<defs>
				<path id="SVGID_81_" style="enable-background:new    ;" d="M52.33,120.537c0.006-1.755-1.294-3.516-3.908-4.879
					c-5.317-2.772-14.063-2.849-19.533-0.173c-2.781,1.361-4.18,3.171-4.186,4.984c0.021-0.722,0.073-0.961,0.167-1.395
					c0.09-0.406,0.307-0.969,0.382-1.12c0.273-0.558,0.409-0.838,0.854-1.434c0.482-0.643,1.091-1.178,1.116-1.2
					c1.149-1.005,2.257-1.581,2.816-1.835c0.709-0.322,2.031-0.921,4.182-1.343c1.668-0.325,5.052-0.749,8.967,0.087
					c3.762,0.805,5.881,2.406,6.811,3.288c0.995,0.947,1.496,1.845,1.706,2.296c0.321,0.694,0.42,1.123,0.474,1.351
					C52.292,119.672,52.302,119.906,52.33,120.537z"/>
			</defs>
			<clipPath id="SVGID_4_">
				<use xlink:href="#SVGID_81_"  style="overflow:visible;"/>
			</clipPath>
			<g style="clip-path:url(#SVGID_4_);enable-background:new    ;">
				<path style="fill:#7F5C28;" d="M52.33,120.537c-0.265-6.258-7.663-8.017-9.143-8.307c-7.411-1.446-13.498,0.64-16.243,3.351
					c-1.937,1.912-2.207,3.707-2.241,4.888c0.006-1.813,1.405-3.624,4.186-4.984c5.469-2.676,14.216-2.599,19.533,0.173
					C51.035,117.021,52.336,118.782,52.33,120.537L52.33,120.537z"/>
			</g>
		</g>
		<g>
			<path style="fill:#9E6B29;" d="M48.142,126.101c-5.471,2.675-14.214,2.599-19.532-0.172c-5.317-2.772-5.193-7.187,0.277-9.865
				c5.471-2.677,14.216-2.599,19.533,0.173C53.736,119.008,53.613,123.425,48.142,126.101z"/>
		</g>
		<g>
			<path style="fill:#F7B44F;" d="M44.756,122.098c-3.539,1.731-9.196,1.682-12.635-0.11c-3.439-1.794-3.36-4.651,0.179-6.382
				c3.539-1.73,9.196-1.681,12.635,0.111C48.375,117.51,48.294,120.367,44.756,122.098z"/>
		</g>
		<g style="enable-background:new    ;">
			<defs>
				<path id="SVGID_83_" style="enable-background:new    ;" d="M47.429,113.723c0.321,0.173,1.299,0.697,2.099,1.379
					c0.303,0.259,0.688,0.619,0.951,0.91c0.245,0.268,0.529,0.654,0.738,0.945c0.174,0.243,0.364,0.592,0.487,0.857
					c0.142,0.308,0.298,0.73,0.396,1.051c0.095,0.306,0.214,0.845,0.23,1.672c-0.007,1.817-1.406,3.624-4.185,4.985
					c0.007-1.912-1.51-4.254-3.389-5.235c3.538-1.731,3.619-4.587,0.179-6.381c-3.439-1.791-9.096-1.841-12.635-0.11
					c-3.539,1.732-3.618,4.588-0.179,6.381c3.439,1.793,9.096,1.843,12.635,0.111c1.879,0.98,3.396,3.323,3.389,5.235
					c-5.471,2.676-14.216,2.599-19.534-0.173c-2.615-1.362-3.913-3.122-3.908-4.88c0.017-0.328,0.035-0.771,0.104-1.095
					c0.07-0.332,0.177-0.833,0.42-1.362c0.538-1.175,1.096-1.796,1.717-2.431c0.444-0.454,2.15-2.013,5.468-2.997
					c3.67-1.09,6.991-0.839,8.081-0.756C42.936,112.014,45.593,112.74,47.429,113.723z"/>
			</defs>
			<clipPath id="SVGID_6_">
				<use xlink:href="#SVGID_83_"  style="overflow:visible;"/>
			</clipPath>
			<g style="clip-path:url(#SVGID_6_);">
				<path style="fill:#E29C3D;" d="M47.429,113.723c3.979,2.134,4.861,4.882,4.901,6.815c-0.007,1.817-1.406,3.624-4.185,4.985
					c0.007-1.912-1.51-4.254-3.389-5.235c3.538-1.731,3.619-4.587,0.179-6.381c-3.439-1.791-9.096-1.841-12.635-0.11
					c-3.539,1.732-3.618,4.588-0.179,6.381c3.439,1.793,9.096,1.843,12.635,0.111c1.879,0.98,3.396,3.323,3.389,5.235
					c-5.471,2.676-14.216,2.599-19.534-0.173c-2.615-1.362-3.913-3.122-3.908-4.88C25.127,111.798,39.842,109.657,47.429,113.723
					L47.429,113.723z"/>
			</g>
		</g>
		<g style="enable-background:new    ;">
			<g>
				<path style="fill:#9E6B29;" d="M24.701,121.049l0.002-0.579c-0.005,1.757,1.293,3.518,3.908,4.88
					c5.318,2.772,14.062,2.849,19.534,0.173l-0.003,0.579c-5.471,2.675-14.214,2.599-19.532-0.172
					C25.994,124.566,24.696,122.806,24.701,121.049L24.701,121.049z"/>
			</g>
		</g>
	</g>
</g>
<ellipse style="fill:#F7B44F;" cx="38.516" cy="117.487" rx="9.496" ry="5.007"/>
<g>
	<g style="opacity:0.46;adobe-blending-mode:multiply;">
		<g style="adobe-knockout:true;adobe-blending-mode:normal;">
			<g style="adobe-knockout:false;">
				<path style="fill:#5F6771;" d="M232.596,183.317c4.231,2.409,4.258,6.816-0.419,9.535l-42.197,24.323
					c-4.676,2.719-12.286,2.719-16.989,0L34.002,137.938c-4.709-2.724-4.733-7.131-0.059-9.847l42.197-24.324
					c4.677-2.717,12.286-2.717,17.473,0.309L232.596,183.317z"/>
			</g>
		</g>
	</g>
	<g style="adobe-knockout:true;">
		<g style="adobe-knockout:false;enable-background:new    ;">
			<g>
				<g>
					<polygon style="fill:#B8B161;" points="140.307,104.434 152.546,97.279 155.945,132.817 140.2,141.966 					"/>
				</g>
			</g>
			<g style="enable-background:new    ;">
				<g style="enable-background:new    ;">
					<g>
						<path style="fill:#FBF4A3;" d="M151.087,94.494c-4.867-2.812-10.077-5.856-15.335-8.89
							c-20.606-11.898-30.968-13.921-43.058-15.936c-9.495-1.582-15.828,2.123-15.828,2.123c4.673-2.715,26.039,9.072,46.645,20.968
							c5.259,3.035,10.469,6.08,15.336,8.889c0.202,0.117,0.389,0.28,0.559,0.472l12.239-7.156
							C151.477,94.772,151.29,94.61,151.087,94.494z"/>
					</g>
					<g>
						<path style="fill:#F9F293;" d="M139.406,102.12l12.239-7.156c0.233,0.265,0.431,0.588,0.582,0.929l-12.24,7.157
							C139.836,102.708,139.638,102.385,139.406,102.12L139.406,102.12z"/>
					</g>
					<g>
						<path style="fill:#F9F293;" d="M139.988,103.05l12.24-7.157c0.203,0.461,0.32,0.955,0.318,1.386l-12.239,7.155
							C140.308,104.005,140.191,103.511,139.988,103.05L139.988,103.05z"/>
					</g>
				</g>
			</g>
			<g>
				<g>
					<path style="fill:#E0D875;" d="M123.511,92.76c5.259,3.035,10.469,6.08,15.336,8.889c0.852,0.492,1.461,1.808,1.459,2.785
						l-0.106,37.532l-66.913-38.631c0.008-1.062,0.155-21.225,2.734-30.445C77.681,66.953,101.048,79.791,123.511,92.76z"/>
				</g>
			</g>
		</g>
		<g style="adobe-knockout:false;enable-background:new    ;">
			<g style="enable-background:new    ;">
				<g style="enable-background:new    ;">
					<g>
						<path style="fill:#FBF4A3;" d="M169.414,105.038c-5.255-3.035-10.467-6.008-15.334-8.818
							c-0.373-0.215-0.703-0.219-0.953-0.073l-12.24,7.157c0.25-0.146,0.579-0.143,0.953,0.075
							c4.868,2.809,10.079,5.782,15.334,8.817c18.421,10.635,37.448,22.059,44.592,30.144l9.449-4.984
							C204.069,129.27,187.835,115.674,169.414,105.038z"/>
					</g>
					<g>
						<path style="fill:#EFED85;" d="M201.765,142.338l9.449-4.984c1.135,1.284,1.97,2.484,2.454,3.584l-9.448,4.984
							C203.736,144.822,202.902,143.623,201.765,142.338L201.765,142.338z"/>
					</g>
					<g>
						<path style="fill:#E0D875;" d="M204.221,145.922l9.448-4.984c0.186,0.42,0.32,0.825,0.402,1.215
							c2.518,12.163,4.562,23.11,2.1,27.906c-2.079,4.05-8.997,10.575-8.997,10.575c-0.001-1.068-0.033-21.335-2.552-33.496
							C204.541,146.748,204.407,146.342,204.221,145.922L204.221,145.922z"/>
					</g>
				</g>
			</g>
			<g>
				<g>
					<path style="fill:#B1A656;" d="M157.173,112.195c22.465,12.97,45.832,27.113,47.448,34.943
						c2.519,12.162,2.551,32.429,2.552,33.496l-66.911-38.633l0.106-37.53c0.003-0.979,0.618-1.585,1.471-1.093
						C146.707,106.187,151.918,109.16,157.173,112.195z"/>
				</g>
			</g>
		</g>
	</g>
	<g style="adobe-knockout:true;">
		<g style="adobe-knockout:false;enable-background:new    ;">
			<g style="enable-background:new    ;">
				<g style="enable-background:new    ;">
					<g>
						<path style="fill:#A5A28B;" d="M149.438,189.811l1.575-0.914c0.096-0.059,0.23-0.049,0.376,0.036l-1.574,0.915
							C149.668,189.762,149.535,189.754,149.438,189.811L149.438,189.811z"/>
					</g>
				</g>
			</g>
			<g style="enable-background:new    ;">
				<g style="enable-background:new    ;">
					<g>
						<path style="fill:#A5A28B;" d="M171.222,214.327l1.574-0.915c0.086,0.284,0.034,0.517-0.114,0.604l-1.575,0.914
							C171.257,214.844,171.309,214.613,171.222,214.327L171.222,214.327z"/>
					</g>
				</g>
			</g>
			<g>
				<g>
					<polygon style="fill:#999782;" points="149.814,189.847 151.389,188.932 167.943,198.491 166.368,199.405 					"/>
				</g>
			</g>
			<g>
				<g>
					<polygon style="fill:#9F9D86;" points="166.853,200.051 168.427,199.136 172.797,213.413 171.222,214.327 					"/>
				</g>
			</g>
			<g style="enable-background:new    ;">
				<g style="enable-background:new    ;">
					<g>
						<path style="fill:#A5A28B;" d="M166.368,199.405l1.575-0.914c0.081,0.045,0.161,0.113,0.23,0.192l-1.574,0.916
							C166.529,199.518,166.45,199.453,166.368,199.405L166.368,199.405z"/>
					</g>
					<g>
						<path style="fill:#DCDBD1;" d="M166.6,199.599l1.574-0.916c0.081,0.094,0.152,0.205,0.205,0.324l-1.575,0.914
							C166.751,199.804,166.681,199.691,166.6,199.599L166.6,199.599z"/>
					</g>
					<g>
						<path style="fill:#A5A28B;" d="M166.804,199.921l1.575-0.914c0.018,0.041,0.034,0.086,0.048,0.13l-1.574,0.915
							C166.84,200.008,166.823,199.965,166.804,199.921L166.804,199.921z"/>
					</g>
				</g>
			</g>
			<g>
				<g>
					<path style="fill:#7D7B6E;" d="M166.368,199.405c0.21,0.12,0.399,0.372,0.484,0.645l4.369,14.276
						c0.113,0.372-0.013,0.656-0.279,0.638c-0.067-0.006-0.138-0.03-0.209-0.071c-0.203-0.117-0.398-0.367-0.484-0.646l-4.233-13.83
						l-16.207-9.358c-0.29-0.167-0.527-0.577-0.525-0.91c0-0.339,0.238-0.471,0.529-0.303L166.368,199.405z"/>
				</g>
			</g>
		</g>
		<g style="adobe-knockout:false;enable-background:new    ;">
			<g style="enable-background:new    ;">
				<g style="enable-background:new    ;">
					<g>
						<path style="fill:#A5A28B;" d="M34.049,135.614l1.573-0.917c-0.025,0.057-0.064,0.097-0.109,0.123l-1.575,0.916
							C33.983,135.71,34.021,135.668,34.049,135.614L34.049,135.614z"/>
					</g>
				</g>
			</g>
			<g>
				<g>
					<polygon style="fill:#7F7D70;" points="38.345,126.707 39.921,125.792 35.622,134.697 34.049,135.614 					"/>
				</g>
			</g>
			<g style="enable-background:new    ;">
				<g style="enable-background:new    ;">
					<g>
						<path style="fill:#A5A28B;" d="M37.624,125.255l1.575-0.915c0.097-0.057,0.234-0.045,0.376,0.038l-1.574,0.914
							C37.86,125.21,37.723,125.199,37.624,125.255L37.624,125.255z"/>
					</g>
				</g>
			</g>
			<g>
				<g>
					<polygon style="fill:#999782;" points="38.002,125.293 39.576,124.378 56.127,133.933 54.551,134.847 					"/>
				</g>
			</g>
			<g style="enable-background:new    ;">
				<g style="enable-background:new    ;">
					<g>
						<path style="fill:#A5A28B;" d="M54.551,134.847l1.575-0.914c0.084,0.048,0.163,0.117,0.234,0.196l-1.575,0.915
							C54.716,134.964,54.637,134.898,54.551,134.847L54.551,134.847z"/>
					</g>
					<g>
						<path style="fill:#DCDBD1;" d="M54.786,135.044l1.575-0.915c0.082,0.093,0.15,0.201,0.201,0.315l-1.575,0.915
							C54.936,135.246,54.867,135.138,54.786,135.044L54.786,135.044z"/>
					</g>
					<g>
						<path style="fill:#A5A28B;" d="M54.986,135.36l1.575-0.915c0.058,0.131,0.092,0.269,0.09,0.399
							c0,0.167-0.058,0.285-0.152,0.341l-1.575,0.914c0.094-0.055,0.153-0.173,0.154-0.34
							C55.078,135.631,55.044,135.492,54.986,135.36L54.986,135.36z"/>
					</g>
				</g>
			</g>
			<g>
				<g>
					<path style="fill:#7D7B6E;" d="M54.551,134.847c0.296,0.171,0.526,0.573,0.526,0.911c-0.001,0.335-0.236,0.473-0.529,0.303
						l-16.204-9.355l-4.296,8.907c-0.087,0.179-0.282,0.203-0.486,0.086c-0.07-0.041-0.142-0.099-0.209-0.171
						c-0.267-0.29-0.389-0.717-0.274-0.956l4.436-9.194c0.082-0.176,0.276-0.206,0.486-0.085L54.551,134.847z"/>
				</g>
			</g>
		</g>
	</g>
	<g style="adobe-knockout:true;">
		<g style="adobe-knockout:false;enable-background:new    ;">
			<g style="enable-background:new    ;">
				<g style="enable-background:new    ;">
					<g>
						<path style="fill:#A5A28B;" d="M186.795,169.084l1.573-0.915c0.096-0.057,0.23-0.048,0.377,0.036l-1.575,0.915
							C187.024,169.036,186.891,169.028,186.795,169.084L186.795,169.084z"/>
					</g>
				</g>
			</g>
			<g style="enable-background:new    ;">
				<g style="enable-background:new    ;">
					<g>
						<path style="fill:#A5A28B;" d="M208.579,193.601l1.575-0.915c0.086,0.284,0.033,0.517-0.115,0.604l-1.575,0.915
							C208.614,194.118,208.667,193.887,208.579,193.601L208.579,193.601z"/>
					</g>
				</g>
			</g>
			<g>
				<g>
					<polygon style="fill:#999782;" points="187.171,169.121 188.746,168.205 205.3,177.765 203.725,178.679 					"/>
				</g>
			</g>
			<g>
				<g>
					<polygon style="fill:#9F9D86;" points="204.21,179.324 205.784,178.41 210.154,192.686 208.579,193.601 					"/>
				</g>
			</g>
			<g style="enable-background:new    ;">
				<g style="enable-background:new    ;">
					<g>
						<path style="fill:#A5A28B;" d="M203.725,178.679l1.575-0.914c0.082,0.045,0.16,0.113,0.23,0.192l-1.573,0.917
							C203.886,178.792,203.807,178.726,203.725,178.679L203.725,178.679z"/>
					</g>
					<g>
						<path style="fill:#DCDBD1;" d="M203.957,178.874l1.573-0.917c0.081,0.093,0.153,0.204,0.206,0.323l-1.576,0.915
							C204.108,179.078,204.038,178.966,203.957,178.874L203.957,178.874z"/>
					</g>
					<g>
						<path style="fill:#A5A28B;" d="M204.16,179.195l1.576-0.915c0.019,0.043,0.035,0.086,0.048,0.13l-1.574,0.915
							C204.197,179.281,204.179,179.238,204.16,179.195L204.16,179.195z"/>
					</g>
				</g>
			</g>
			<g>
				<g>
					<path style="fill:#7D7B6E;" d="M203.725,178.679c0.21,0.12,0.399,0.373,0.485,0.645l4.369,14.277
						c0.113,0.372-0.012,0.656-0.278,0.638c-0.067-0.006-0.138-0.03-0.209-0.072c-0.204-0.117-0.399-0.367-0.484-0.645
						l-4.232-13.831l-16.208-9.358c-0.292-0.167-0.527-0.577-0.527-0.91c0.002-0.339,0.24-0.47,0.53-0.302L203.725,178.679z"/>
				</g>
			</g>
		</g>
		<g style="adobe-knockout:false;enable-background:new    ;">
			<g style="enable-background:new    ;">
				<g style="enable-background:new    ;">
					<g>
						<path style="fill:#A5A28B;" d="M71.404,114.887l1.575-0.916c-0.028,0.056-0.066,0.097-0.111,0.123l-1.573,0.916
							C71.341,114.983,71.378,114.942,71.404,114.887L71.404,114.887z"/>
					</g>
				</g>
			</g>
			<g>
				<g>
					<polygon style="fill:#7F7D70;" points="75.702,105.98 77.276,105.065 72.98,113.971 71.404,114.887 					"/>
				</g>
			</g>
			<g style="enable-background:new    ;">
				<g style="enable-background:new    ;">
					<g>
						<path style="fill:#A5A28B;" d="M74.981,104.529l1.573-0.914c0.099-0.057,0.236-0.045,0.378,0.038l-1.575,0.915
							C75.215,104.484,75.078,104.472,74.981,104.529L74.981,104.529z"/>
					</g>
				</g>
			</g>
			<g>
				<g>
					<polygon style="fill:#999782;" points="75.358,104.566 76.933,103.652 93.482,113.207 91.909,114.121 					"/>
				</g>
			</g>
			<g style="enable-background:new    ;">
				<g style="enable-background:new    ;">
					<g>
						<path style="fill:#A5A28B;" d="M91.909,114.121l1.573-0.914c0.084,0.048,0.165,0.117,0.233,0.197l-1.573,0.915
							C92.072,114.238,91.994,114.171,91.909,114.121L91.909,114.121z"/>
					</g>
					<g>
						<path style="fill:#DCDBD1;" d="M92.143,114.318l1.573-0.915c0.082,0.093,0.152,0.201,0.201,0.315l-1.573,0.916
							C92.293,114.521,92.223,114.411,92.143,114.318L92.143,114.318z"/>
					</g>
					<g>
						<path style="fill:#A5A28B;" d="M92.344,114.634l1.573-0.916c0.057,0.131,0.091,0.269,0.091,0.399
							c0,0.168-0.059,0.285-0.154,0.341l-1.573,0.914c0.094-0.055,0.153-0.173,0.153-0.34
							C92.436,114.904,92.402,114.765,92.344,114.634L92.344,114.634z"/>
					</g>
				</g>
			</g>
			<g>
				<g>
					<path style="fill:#7D7B6E;" d="M91.909,114.121c0.294,0.17,0.527,0.572,0.525,0.911c0,0.335-0.235,0.473-0.53,0.303
						l-16.202-9.355l-4.298,8.907c-0.086,0.179-0.28,0.203-0.485,0.086c-0.071-0.041-0.143-0.099-0.209-0.17
						c-0.265-0.29-0.389-0.717-0.274-0.957l4.436-9.194c0.081-0.176,0.278-0.206,0.485-0.086L91.909,114.121z"/>
				</g>
			</g>
		</g>
	</g>
	<g style="adobe-knockout:true;">
		<g style="adobe-knockout:false;enable-background:new    ;">
			<g>
				<g style="enable-background:new    ;">
					<g>
						<path style="fill:#989546;" d="M35.703,118.005l36.737-21.348c2.795,2.869,3.141,4.281,3.735,5.626l-36.738,21.349
							c-0.593-1.345-0.939-2.757-0.936-4.062L35.703,118.005z"/>
					</g>
					<g>
						<path style="fill:#989546;" d="M39.437,123.632l36.738-21.349c0.528,1.191,1.249,2.332-0.703,1.731l-36.737,21.349
							C40.687,125.964,39.966,124.824,39.437,123.632L39.437,123.632z"/>
					</g>
					<g>
						<path style="fill:#989546;" d="M38.736,125.363l36.737-21.349c3.512,2.378,4.315,3.066,5.163,3.556L43.9,128.919
							c-0.85-0.49-1.652-1.177-2.366-1.991L38.736,125.363z"/>
					</g>
				</g>
			</g>
			<g>
				<g>
					<polygon style="fill:#989546;" points="38.508,117.139 75.246,95.789 72.441,96.657 35.703,118.005 					"/>
				</g>
			</g>
			<g>
				<g style="enable-background:new    ;">
					<g>
						<path style="fill:#989546;" d="M40.088,113.667l36.738-21.351c-0.972,0.566-1.575,1.766-1.579,3.473l-36.738,21.349
							C38.513,115.432,39.117,114.231,40.088,113.667L40.088,113.667z"/>
					</g>
				</g>
			</g>
			<g style="enable-background:new    ;">
				<g style="enable-background:new    ;">
					<g>
						<path style="fill:#EFED85;" d="M33.161,99.591l36.738-21.35c0.237-0.138,0.564-0.119,0.927,0.089L34.087,99.68
							C33.725,99.472,33.398,99.453,33.161,99.591L33.161,99.591z"/>
					</g>
				</g>
			</g>
			<g>
				<g>
					<polygon style="fill:#989546;" points="43.9,128.919 80.636,107.569 195.863,174.095 159.126,195.444 					"/>
				</g>
			</g>
			<g style="enable-background:new    ;">
				<g style="enable-background:new    ;">
					<g>
						<path style="fill:#FBF4A3;" d="M40.382,114.177l36.737-21.35c0.935-0.543,2.232-0.466,3.663,0.36
							c3.827,2.209,47.116,27.185,55.693,32.138l-36.74,21.348c-8.576-4.953-51.864-29.927-55.691-32.138
							C42.614,113.709,41.317,113.633,40.382,114.177L40.382,114.177z"/>
					</g>
				</g>
			</g>
			<g>
				<g style="enable-background:new    ;">
					<g>
						<path style="fill:#EEED8E;" d="M51.627,116.806l36.738-21.348c-0.002,0.471-0.168,0.803-0.437,0.96l-36.737,21.349
							C51.46,117.611,51.626,117.279,51.627,116.806L51.627,116.806z"/>
					</g>
				</g>
			</g>
			<g>
				<g>
					<polygon style="fill:#E0D875;" points="51.642,111.365 88.379,90.017 88.365,95.458 51.627,116.806 					"/>
				</g>
			</g>
			<g>
				<g>
					<polygon style="fill:#F8F5BB;" points="34.087,99.68 70.825,78.331 87.081,87.767 50.345,109.117 					"/>
				</g>
			</g>
			<g>
				<path style="fill:#E0D875;" d="M88.154,89.038c-0.127-0.286-0.3-0.56-0.503-0.791c-0.172-0.195-0.365-0.36-0.57-0.48
					l-36.736,21.35c0.203,0.119,0.397,0.284,0.569,0.479c0.203,0.232,0.377,0.506,0.502,0.793c0.144,0.323,0.228,0.662,0.226,0.977
					l36.737-21.348C88.381,89.703,88.298,89.362,88.154,89.038z"/>
			</g>
			<g>
				<g style="enable-background:new    ;">
					<g>
						<path style="fill:#989546;" d="M101.246,159.993l36.739-21.35c-0.006,0.244-0.049,0.448-0.131,0.615
							c-0.078,0.156-0.187,0.276-0.321,0.353l-36.738,21.35c0.133-0.078,0.242-0.198,0.321-0.355
							C101.197,160.441,101.242,160.236,101.246,159.993L101.246,159.993z"/>
					</g>
				</g>
			</g>
			<g>
				<g>
					<polygon style="fill:#989546;" points="101.276,149.317 138.016,127.969 137.985,138.643 101.246,159.993 					"/>
				</g>
			</g>
			<g>
				<g>
					<path style="fill:#E9E37E;" d="M99.736,146.672c0.846,0.489,1.535,1.668,1.54,2.645l-0.031,10.676
						c-0.004,0.243-0.048,0.448-0.129,0.613c-0.244,0.489-0.788,0.613-1.422,0.247l-55.691-32.169
						c-2.843-1.642-5.141-5.623-5.132-8.889l0.007-2.317c0.009-3.266,2.323-4.584,5.166-2.944
						C47.873,116.745,91.16,141.72,99.736,146.672z"/>
				</g>
			</g>
			<g style="enable-background:new    ;">
				<g style="enable-background:new    ;">
					<g>
						<path style="fill:#F9F293;" d="M99.736,146.672l36.74-21.348c0.24,0.139,0.47,0.336,0.674,0.568l-36.738,21.349
							C100.209,147.008,99.979,146.812,99.736,146.672L99.736,146.672z"/>
					</g>
					<g>
						<path style="fill:#F9F293;" d="M100.412,147.241l36.738-21.349c0.242,0.274,0.448,0.599,0.598,0.939l-36.737,21.349
							C100.859,147.84,100.654,147.516,100.412,147.241L100.412,147.241z"/>
					</g>
					<g>
						<path style="fill:#F9F293;" d="M101.011,148.18l36.737-21.349c0.167,0.376,0.265,0.771,0.268,1.138l-36.74,21.348
							C101.274,148.952,101.176,148.557,101.011,148.18L101.011,148.18z"/>
					</g>
				</g>
			</g>
			<g>
				<g style="enable-background:new    ;">
					<g>
						<path style="fill:#FBF4A3;" d="M101.903,148.448l36.739-21.35c0.281-0.163,0.667-0.138,1.095,0.107l-36.739,21.35
							C102.571,148.308,102.183,148.284,101.903,148.448L101.903,148.448z"/>
					</g>
				</g>
			</g>
			<g style="enable-background:new    ;">
				<g style="enable-background:new    ;">
					<g>
						<path style="fill:#EEED8E;" d="M159.126,195.444l36.737-21.349c1.505,0.869,2.868,0.949,3.853,0.376l-36.737,21.349
							C161.994,196.393,160.63,196.314,159.126,195.444L159.126,195.444z"/>
					</g>
				</g>
			</g>
			<g style="enable-background:new    ;">
				<g style="enable-background:new    ;">
					<g>
						<path style="fill:#EEED8E;" d="M159.126,195.444l36.737-21.349c1.505,0.869,2.868,0.949,3.853,0.376l-36.737,21.349
							C161.994,196.393,160.63,196.314,159.126,195.444L159.126,195.444z"/>
					</g>
				</g>
			</g>
			<g>
				<g style="enable-background:new    ;">
					<g>
						<path style="fill:#989546;" d="M159.126,195.444l36.737-21.349c1.505,0.869,2.868,0.949,3.853,0.376l-36.737,21.349
							C161.994,196.393,160.63,196.314,159.126,195.444L159.126,195.444z"/>
					</g>
				</g>
			</g>
			<g>
				<g style="enable-background:new    ;">
					<g>
						<path style="fill:#C9CA7C;" d="M164.344,192.235l36.738-21.349c-0.005,1.622-0.578,2.763-1.502,3.301l-36.739,21.349
							C163.767,195,164.34,193.859,164.344,192.235L164.344,192.235z"/>
					</g>
				</g>
			</g>
			<g>
				<g style="enable-background:new    ;">
					<g>
						<path style="fill:#C9CA7C;" d="M170.46,201.972l36.738-21.35c-0.001,0.41-0.145,0.7-0.379,0.836l-36.738,21.35
							C170.314,202.672,170.458,202.382,170.46,201.972L170.46,201.972z"/>
					</g>
				</g>
			</g>
			<g style="enable-background:new    ;">
				<g style="enable-background:new    ;">
					<g>
						<path style="fill:#FBF4A3;" d="M102.998,148.556l36.739-21.35c5.799,3.349,49.615,28.663,56.215,32.471
							c0.808,0.469,1.573,1.125,2.254,1.899l-36.739,21.35c-0.679-0.775-1.444-1.431-2.254-1.898
							C152.614,177.217,108.798,151.904,102.998,148.556L102.998,148.556z"/>
					</g>
					<g>
						<path style="fill:#EEEE8E;" d="M161.467,182.926l36.739-21.35c0.804,0.917,1.491,1.999,1.993,3.134l-36.74,21.349
							C162.959,184.926,162.273,183.842,161.467,182.926L161.467,182.926z"/>
					</g>
					<g>
						<path style="fill:#EEEE8E;" d="M163.46,186.058l36.74-21.349c0.563,1.279,0.893,2.621,0.89,3.86l-36.739,21.349
							C164.354,188.678,164.025,187.336,163.46,186.058L163.46,186.058z"/>
					</g>
				</g>
			</g>
			<g>
				<g style="enable-background:new    ;">
					<g>
						<path style="fill:#EFED85;" d="M155.346,170.008l36.758-21.624c0.236-0.138,0.542,0.157,0.906,0.366L156.272,170.1
							C155.911,169.889,155.582,169.871,155.346,170.008L155.346,170.008z"/>
					</g>
				</g>
			</g>
			<g>
				<g>
					<polygon style="fill:#C9CA7C;" points="164.35,189.918 201.089,168.57 201.082,170.886 164.344,192.235 					"/>
				</g>
			</g>
			<g>
				<g>
					<path style="fill:#E9E37E;" d="M102.998,148.556c5.8,3.348,49.616,28.661,56.215,32.472c2.847,1.643,5.146,5.624,5.137,8.89
						l-0.007,2.317c-0.01,3.266-2.322,4.585-5.17,2.941l-56.216-32.438c-0.633-0.366-1.178-1.119-1.414-1.884
						c-0.08-0.259-0.126-0.516-0.131-0.765l0.013-10.554C101.439,148.54,102.152,148.068,102.998,148.556z"/>
				</g>
			</g>
			<g>
				<g>
					<polygon style="fill:#E0D875;" points="170.511,179.917 207.248,158.566 207.186,180.589 170.447,201.936 					"/>
				</g>
			</g>
			<g>
				<g>
					<polygon style="fill:#FCF7B9;" points="156.272,170.1 193.01,148.75 205.961,156.351 169.224,177.701 					"/>
				</g>
			</g>
			<g>
				<g>
					<path style="fill:#E9E37E;" d="M169.224,177.701c0.722,0.416,1.3,1.424,1.298,2.249l-0.062,22.022
						c-0.002,0.824-0.585,1.161-1.308,0.744l-0.404-0.233L34.016,124.695c-0.718-0.414-1.302-1.424-1.299-2.249l0.062-22.021
						c0.003-0.825,0.589-1.16,1.308-0.745l16.258,9.437c0.722,0.418,1.3,1.424,1.297,2.248l-0.015,5.441
						c-0.003,0.951-0.675,1.336-1.508,0.855l-6.177-3.617c-2.99-1.726-5.423-0.341-5.434,3.095l-0.007,2.431
						c-0.01,3.437,2.408,7.622,5.399,9.349l115.226,66.526c2.99,1.727,5.421,0.339,5.432-3.095l0.007-2.433
						c0.01-3.434-2.406-7.62-5.397-9.349l-2.725-1.697c-0.813-0.469-1.495-1.596-1.492-2.536c0.006-2.113,0.015-5.322,0.016-5.491
						c0.002-0.824,0.583-1.162,1.306-0.744L169.224,177.701z"/>
				</g>
			</g>
			<g style="enable-background:new    ;">
				<g style="enable-background:new    ;">
					<g>
						<path style="fill:#F9F293;" d="M169.224,177.701l36.737-21.35c0.205,0.118,0.398,0.283,0.57,0.48l-36.737,21.349
							C169.621,177.985,169.428,177.819,169.224,177.701L169.224,177.701z"/>
					</g>
					<g>
						<path style="fill:#F9F293;" d="M169.794,178.18l36.737-21.349c0.204,0.231,0.376,0.505,0.504,0.791l-36.737,21.35
							C170.17,178.686,169.997,178.412,169.794,178.18L169.794,178.18z"/>
					</g>
					<g>
						<path style="fill:#F9F293;" d="M170.298,178.972l36.737-21.35c0.144,0.325,0.226,0.665,0.225,0.978l-36.738,21.349
							C170.522,179.635,170.439,179.295,170.298,178.972L170.298,178.972z"/>
					</g>
				</g>
			</g>
		</g>
	</g>
</g>
<g>
	<g style="adobe-knockout:true;">
		<g style="adobe-knockout:false;enable-background:new    ;">
			<g style="enable-background:new    ;">
				<g style="enable-background:new    ;">
					<g>
						<path style="fill:#FCF8C7;" d="M129.168,96.943c-8.755-8.686-18.639-11.844-27.16-16.765
							c-6.982-4.032-8.013-6.84-15.147-7.623c-3.167-0.346-11.83,5.259-11.83,5.259c4.56,1.628,11.396,4.196,18.379,8.227
							c8.521,4.919,18.995,11.668,26.302,17.304c0.138,0.108,0.206,0.348,0.397,0.378c3.144,0.518,9.456-6.403,9.456-6.403
							C129.438,97.177,129.292,97.066,129.168,96.943z"/>
					</g>
					<g>
						<path style="fill:#E3A47A;" d="M118.458,103.763c0-3.187,11.108-6.442,11.108-6.442c0.295,0.342,0.557,0.783,0.786,1.309
							c0,0-8.994,9.773-12.023,8.781c-0.545-0.18,2.076-3.344,1.781-3.686L118.458,103.763z"/>
					</g>
					<g>
						<path style="fill:#D29666;" d="M118.72,105.455c0-3.186,11.631-6.826,11.631-6.826c2.531,5.815,1.057,21.831-1.534,23.164
							l-11.02,6.405c2.591-1.334-0.12-12.971-0.12-20.137L118.72,105.455z"/>
					</g>
				</g>
			</g>
			<g>
				<g>
					<path style="fill:#E0D875;" d="M93.703,85.553c-6.983-4.031-14.333-9.934-18.672-7.738c-1.131,0.642-1.84,3.058-2.184,6.182
						c0.399-1.911,0.995-3.298,1.811-3.762c4.34-2.196,11.691,3.708,18.673,7.739c8.52,4.919,25.424,11.232,24.738,17.003
						c-0.769,6.469,0.904,16.841,0.544,22.238c1.734-3.716,0.408-15.956,1.317-23.308C120.643,98.138,102.222,90.472,93.703,85.553z
						"/>
				</g>
				<g>
					<path style="fill:#E0D875;" d="M118.068,104.976c0.686-5.771-16.218-12.084-24.738-17.003
						c-6.981-4.031-14.332-9.935-18.673-7.739c-0.816,0.464-1.412,1.852-1.811,3.762c-0.451,4.095-0.275,9.408,0.41,13.55
						c0.401,2.433,1.618,5.498,5.428,7.897c9.136,5.751,17.002,10.616,24.595,15.002c4.835,2.791,9.578,5.358,14.517,7.753
						c0.329-0.171,0.595-0.513,0.815-0.984C118.973,121.817,117.299,111.445,118.068,104.976z"/>
				</g>
			</g>
		</g>
	</g>
</g>
<g>
	<g>
		<path style="fill:#FCF8C7;" d="M159.896,180.221c-6.6-3.811-50.415-29.125-56.216-32.473c-0.845-0.489-2.057,0.041-2.219,1.088
			l-0.046,0.546c0.244-0.349,0.997-0.233,1.148-0.145c5.802,3.348,49.616,28.661,56.216,32.472c2.848,1.643,5.146,5.623,5.137,8.89
			l-0.008,2.318c-0.001,0.664-0.056,1.345-0.234,1.842c0.861-0.561,0.927-1.688,0.931-3.246l-0.07-2.445
			C164.545,185.803,162.744,181.863,159.896,180.221z"/>
	</g>
	<g>
		<path style="fill:#FCF8C7;" d="M101.403,149.558l0.012-0.571c-0.006-0.976-0.724-2.183-1.57-2.671
			c-5.8-3.35-49.088-28.325-55.693-32.138c-0.911-0.527-1.519-0.902-2.263-0.852c-1.104,0.072-2.205,0.899-2.621,2.057
			c0.944-0.615,2.28-0.573,3.767,0.285c6.605,3.813,49.903,28.77,55.692,32.138c2.373,1.38,2.565,3.974,2.57,4.952
			C101.298,152.758,101.447,149.575,101.403,149.558z"/>
	</g>
</g>
<g>
	<g>
		<path style="fill:#FCF8C7;" d="M49.198,110.563c0.724,0.417,1.301,1.424,1.298,2.249l-0.013,4.965
			c0.642,0.172,1.114-0.219,1.116-1.013l0.015-5.441c0.002-0.825-0.575-1.832-1.298-2.249l-16.24-9.37
			c-0.719-0.414-1.306-0.08-1.308,0.745l-0.002,0.656c0.063,0.026,0.127,0.051,0.192,0.088L49.198,110.563z"/>
	</g>
	<g>
		<path style="fill:#FCF8C7;" d="M169.224,177.679l-12.952-7.602c-0.723-0.418-1.304-0.08-1.306,0.744
			c0,0.043-0.001,0.285-0.002,0.656c0.064,0.025,0.127,0.051,0.192,0.09l12.95,7.602c0.724,0.416,1.3,1.424,1.299,2.249
			l-0.061,21.365c0.629,0.256,1.113-0.084,1.116-0.834l0.062-22.021C170.524,179.103,169.946,178.095,169.224,177.679z"/>
	</g>
</g>
<g>
	<g>
		<path style="fill:#818181;" d="M135.728,28.783c0,0.867-0.704,1.569-1.569,1.569h-0.232c-0.867,0-1.569-0.703-1.569-1.569l0,0
			c0-0.867,0.702-1.57,1.569-1.57h0.232C135.024,27.214,135.728,27.916,135.728,28.783L135.728,28.783z"/>
		<polygon style="fill:#8A989B;" points="146.494,27.231 139.788,23.334 140.009,101.382 96.277,128.646 102.982,132.545 
			146.715,107.293 		"/>
		<path style="fill:#686969;" d="M133.767,29.089c0.072-0.193,0.124-0.387,0.124-0.571c0-0.29-0.103-0.495-0.27-0.591l-6.708-3.898
			c0.168,0.097,0.27,0.301,0.274,0.591c0,0.184-0.053,0.381-0.124,0.572c-0.02,0.046-0.039,0.09-0.061,0.135
			c-0.104,0.224-0.239,0.438-0.403,0.606c-0.1,0.102-0.208,0.196-0.322,0.261l3.353,1.948c1.175,0.682,2.347,1.363,3.355,1.949
			c0.106-0.062,0.21-0.144,0.307-0.239c0.006-0.006,0.009-0.016,0.013-0.022c0.168-0.17,0.3-0.379,0.404-0.603
			c0.011-0.025,0.033-0.043,0.044-0.068C133.762,29.135,133.758,29.112,133.767,29.089z"/>
		<g>
			<polygon style="fill:#505050;" points="108.091,36.795 126.276,26.194 132.984,30.091 113.79,42.247 			"/>
		</g>
		<g>
			<polygon style="fill:#06496E;" points="145.13,26.24 145.13,106.301 101.398,131.552 101.175,51.489 			"/>
		</g>
		<g>
			<polygon style="fill:#B5B5B5;" points="102.982,132.545 96.277,128.646 96.055,48.583 102.762,52.481 			"/>
		</g>
		<path style="fill:#595F5F;" d="M145.63,12.211c-1.021-0.593-2.434-0.508-3.997,0.394L99.721,36.803
			c-3.133,1.812-5.625,6.229-5.612,9.707l0.271,97.363c0.004,1.769,0.632,3.013,1.641,3.601c2.236,1.298,1.677,0.601,3.914,1.9
			c-1.009-0.586-1.635-1.833-1.64-3.601l-0.27-97.363c-0.014-3.581,2.605-7.974,5.611-9.707l41.912-24.198
			c1.564-0.902,2.978-0.987,3.999-0.394C147.31,12.811,147.867,13.509,145.63,12.211z"/>
		<path style="fill:#0B0907;" d="M145.546,14.505c3.108-1.794,5.626-0.359,5.637,3.213l0.269,97.365
			c0.011,3.56-2.492,7.905-5.6,9.702l-41.911,24.196c-3.108,1.795-5.637,0.353-5.648-3.208l-0.27-97.363
			c-0.01-3.572,2.502-7.913,5.611-9.707L145.546,14.505z M146.715,107.293l-0.221-80.062l-43.732,25.249l0.221,80.064
			L146.715,107.293L146.715,107.293z M124.881,133.417c2.299-1.325,4.146-4.537,4.138-7.167c-0.007-2.64-1.869-3.699-4.165-2.374
			c-2.287,1.322-4.133,4.521-4.127,7.162C120.734,133.668,122.595,134.739,124.881,133.417L124.881,133.417z M116.238,37.648
			c-0.506,0.293-0.908,1.004-0.908,1.584c0.002,0.583,0.408,0.814,0.914,0.523l16.739-9.664c0.496-0.286,0.91-0.992,0.907-1.573
			c-0.001-0.58-0.418-0.819-0.915-0.533L116.238,37.648L116.238,37.648z"/>
		<path style="fill:#A2A7A8;" d="M127.767,123.536c-0.762-0.443-1.822-0.38-2.986,0.293c-0.288,0.167-0.571,0.365-0.841,0.584
			c-0.085,0.069-0.161,0.152-0.242,0.224c-0.181,0.159-0.363,0.316-0.534,0.494c-0.002,0.002-0.005,0.007-0.008,0.01
			c-0.35,0.372-0.667,0.793-0.962,1.231c-0.067,0.1-0.132,0.196-0.194,0.298c-0.278,0.445-0.526,0.902-0.729,1.379
			c-0.007,0.018-0.018,0.034-0.027,0.049c-0.024,0.057-0.031,0.115-0.055,0.172c-0.145,0.371-0.265,0.748-0.358,1.125
			c-0.032,0.123-0.063,0.243-0.085,0.365c-0.091,0.445-0.152,0.889-0.151,1.316c0.003,1.32,0.467,2.248,1.22,2.685l0.566,0.327
			c-0.752-0.434-1.217-1.362-1.22-2.681c-0.001-0.428,0.06-0.872,0.15-1.317c0.023-0.124,0.054-0.247,0.087-0.369
			c0.091-0.377,0.21-0.753,0.358-1.125c0.03-0.072,0.051-0.147,0.081-0.218c0.2-0.474,0.451-0.932,0.725-1.374
			c0.064-0.106,0.132-0.206,0.199-0.308c0.296-0.434,0.611-0.856,0.96-1.223c0.2-0.214,0.412-0.402,0.629-0.59
			c0.051-0.042,0.098-0.097,0.152-0.142c0.274-0.22,0.554-0.418,0.844-0.582c1.164-0.676,2.224-0.737,2.988-0.294L127.767,123.536z"
			/>
		<g>
			<path style="fill:#FFFFFF;" d="M125.345,124.159c2.313-1.338,4.202-0.273,4.211,2.398c0.007,2.661-1.87,5.901-4.185,7.236
				c-2.325,1.342-4.204,0.271-4.211-2.386C121.153,128.734,123.02,125.5,125.345,124.159z"/>
		</g>
		<g style="enable-background:new    ;">
			<path style="fill:#505050;" d="M95.999,85.969c-0.445-0.258-0.849-0.283-1.141-0.114l-0.577,0.336
				c0.291-0.17,0.696-0.145,1.139,0.113c0.882,0.507,1.596,1.738,1.594,2.755c-0.003,0.505-0.181,0.86-0.469,1.026l0.578-0.335
				c0.287-0.167,0.467-0.523,0.469-1.028C97.593,87.707,96.88,86.476,95.999,85.969z"/>
			<g>
				<path style="fill:#757878;" d="M95.42,86.305c0.882,0.507,1.596,1.738,1.594,2.755c-0.004,1.014-0.722,1.426-1.602,0.918
					c-0.882-0.511-1.597-1.749-1.596-2.764C93.819,86.198,94.538,85.793,95.42,86.305z"/>
			</g>
		</g>
		<g>
			<path style="fill:#505050;" d="M95.999,69.853c-0.445-0.257-0.849-0.281-1.141-0.112l-0.577,0.335
				c0.291-0.17,0.696-0.145,1.139,0.112c0.882,0.507,1.596,1.739,1.594,2.755c-0.003,0.505-0.181,0.861-0.469,1.028l0.578-0.336
				c0.287-0.167,0.467-0.523,0.469-1.028C97.593,71.591,96.88,70.36,95.999,69.853z"/>
			<g>
				<path style="fill:#757878;" d="M95.42,70.189c0.882,0.507,1.596,1.739,1.594,2.755c-0.004,1.016-0.722,1.425-1.602,0.918
					c-0.882-0.509-1.597-1.747-1.596-2.762C93.819,70.082,94.538,69.679,95.42,70.189z"/>
			</g>
		</g>
		<g>
			<path style="fill:#5C5C5C;" d="M96.878,58.249c0.048,0.029,0.081,0.083,0.081,0.141l-0.021,2.361c0,0.044-0.045,0.071-0.083,0.05
				l-2.296-1.207c-0.051-0.027-0.082-0.08-0.082-0.138l0.018-2.512c0-0.042,0.045-0.067,0.081-0.047L96.878,58.249z"/>
			<path style="fill:#5C5C5C;" d="M96.878,58.249c0.048,0.029,0.081,0.083,0.081,0.141l-0.021,2.361c0,0.044-0.045,0.071-0.083,0.05
				l-2.296-1.207c-0.051-0.027-0.082-0.08-0.082-0.138l0.018-2.512c0-0.042,0.045-0.067,0.081-0.047L96.878,58.249z"/>
			<path style="fill:#707373;" d="M94.641,56.937l-0.017,2.416c0,0.059,0.031,0.112,0.083,0.139l2.233,1.174l0.02-2.276
				c0-0.059-0.033-0.112-0.081-0.141L94.641,56.937z"/>
			<path style="fill:#A5A5A5;" d="M96.696,58.232l-2.006-1.159c-0.065-0.037-0.121-0.041-0.163-0.016l-0.664,0.386
				c0.043-0.024,0.1-0.021,0.163,0.016l2.008,1.158c0.126,0.073,0.229,0.25,0.229,0.395c0,0.072-0.027,0.122-0.067,0.146
				l0.662-0.385c0.042-0.024,0.069-0.075,0.069-0.146C96.925,58.482,96.822,58.305,96.696,58.232z"/>
			<g>
				<path style="fill:#D7D9D8;" d="M96.033,58.617c0.126,0.073,0.229,0.25,0.229,0.395c0,0.145-0.104,0.203-0.231,0.13l-2.006-1.16
					c-0.127-0.072-0.228-0.249-0.228-0.394c0-0.145,0.103-0.203,0.229-0.129L96.033,58.617z"/>
			</g>
			<path style="fill:#D64455;" d="M96.947,59.86l-2.318-1.199l-0.005,0.692c0,0.059,0.031,0.112,0.083,0.139l2.233,1.174
				L96.947,59.86z"/>
		</g>
		<g>
			<path style="fill:#505050;" d="M110.034,32.443l-3.294,1.914c-0.347,0.2-0.897,0.195-1.235,0c-0.172-0.099-0.26-0.23-0.26-0.361
				l-0.002,1.083c0,0.131,0.086,0.262,0.259,0.361c0.339,0.195,0.888,0.201,1.234,0l3.293-1.914
				c0.169-0.098,0.251-0.227,0.252-0.356l0.002-1.082C110.283,32.217,110.201,32.346,110.034,32.443z"/>
			<g>
				<path style="fill:#757878;" d="M110.029,31.727c0.338,0.196,0.342,0.52,0.004,0.716l-3.294,1.914
					c-0.347,0.2-0.897,0.195-1.235,0c-0.34-0.196-0.349-0.515-0.004-0.715l3.292-1.914
					C109.132,31.532,109.689,31.532,110.029,31.727z"/>
			</g>
		</g>
	</g>
	<g>
		<path style="fill:#C9C7C7;" d="M145.13,95.403v-0.064v6.996v0.063l-42.203,24.148l-0.019-6.995L145.13,95.403z M140.324,103.649
			l-0.01-4.137l-30.487,17.601l0.011,4.137L140.324,103.649L140.324,103.649z"/>
	</g>
	<g>
		<polygon style="fill:#FFFFFF;" points="140.313,99.512 140.324,103.649 109.838,121.25 109.826,117.113 		"/>
	</g>
	<g>
		<polygon style="fill:#5B5B5B;" points="117.159,96.321 117.164,98.62 114.127,100.375 114.12,98.075 		"/>
	</g>
	<g style="enable-background:new    ;">
		<g>
			<polygon style="fill:#5F95AD;" points="102.937,130.589 102.927,126.546 145.13,102.397 145.13,106.44 			"/>
		</g>
		<g>
			<polygon style="fill:#5B5B5B;" points="112.995,98.726 113.002,101.025 106.926,104.533 106.92,102.233 			"/>
		</g>
		<g>
			<path style="fill:#B4E3F7;" d="M119.977,91.385c0.801-0.463,1.46-0.088,1.463,0.834l0.028,10.183
				c0.003,0.926-0.65,2.055-1.453,2.517c-0.29,0.17-5.802,3.395-7.49,4.371c-0.26,0.149-0.421,0.242-0.452,0.256
				c0,0.005-1.454,2.729-4.399,4.431c-0.193,0.111-0.392,0.218-0.598,0.319c0.055-0.054,1.096-1.085,1.939-3.026l-2.976,1.719
				c-0.807,0.466-1.461,0.093-1.464-0.833l-0.03-10.184c-0.002-0.92,0.648-2.051,1.453-2.516L119.977,91.385z M113.002,101.025
				l-0.007-2.3l-6.075,3.507l0.006,2.3L113.002,101.025L113.002,101.025z M117.164,98.62l-0.005-2.299l-3.039,1.754l0.007,2.3
				L117.164,98.62L117.164,98.62z"/>
		</g>
	</g>
	<g>
		<polygon style="fill:#5B5B5B;" points="143.879,66.742 143.885,69.046 121.977,81.695 121.971,79.391 		"/>
	</g>
	<g>
		<path style="fill:#7BC0DE;" d="M142.608,62.111c0.806-0.465,1.465-0.09,1.467,0.831l0.029,10.183
			c0.001,0.927-0.652,2.054-1.457,2.52l-2.978,1.718c0.851,0.964,1.894,0.79,1.949,0.781c-0.205,0.136-0.403,0.259-0.596,0.37
			c-2.946,1.701-4.338,0.713-4.411,0.662c-0.029,0.014-0.342,0.196-0.862,0.496c-3.381,1.952-13.505,7.692-14.112,8.041
			c-0.806,0.465-1.46,0.092-1.463-0.834l-0.028-10.183c-0.003-0.922,0.647-2.052,1.453-2.518L142.608,62.111z M143.885,69.046
			l-0.006-2.304l-21.908,12.648l0.006,2.304L143.885,69.046L143.885,69.046z"/>
	</g>
	<g>
		<path style="fill:#B4E3F7;" d="M119.883,58.756c0.803-0.463,1.461-0.088,1.464,0.834l0.028,10.183
			c0.004,0.926-0.65,2.053-1.452,2.517c-0.291,0.17-5.803,3.395-7.491,4.37c-0.26,0.15-0.423,0.243-0.452,0.258
			c0,0.004-1.453,2.729-4.401,4.43c-0.19,0.111-0.39,0.218-0.596,0.319c0.055-0.054,1.095-1.085,1.939-3.026l-2.977,1.719
			c-0.807,0.465-1.46,0.093-1.463-0.833l-0.029-10.184c-0.003-0.921,0.647-2.052,1.453-2.517L119.883,58.756z M119.084,65.363
			l-0.007-2.304l-12.15,7.014l0.008,2.303L119.084,65.363L119.084,65.363z"/>
	</g>
	<g>
		<polygon style="fill:#5B5B5B;" points="119.076,63.059 119.084,65.363 106.934,72.377 106.926,70.073 		"/>
	</g>
	<g style="enable-background:new    ;">
		<g>
			<path style="fill:#4279BD;" d="M102.747,62.586l42.383-24.148v56.965l-42.222,24.148L102.747,62.586z M144.105,73.126
				l-0.029-10.183c-0.003-0.921-0.661-1.296-1.467-0.831l-21.009,12.067c-0.806,0.466-1.456,1.596-1.453,2.518l0.028,10.183
				c0.002,0.926,0.657,1.298,1.463,0.834c0.607-0.349,10.731-6.089,14.112-8.041c0.52-0.3,0.833-0.482,0.862-0.501
				c0,0.005,1.465,1.045,4.411-0.656c0.193-0.111,0.391-0.234,0.596-0.37c-0.055,0.009-1.098,0.183-1.949-0.781l2.978-1.718
				C143.453,75.18,144.106,74.053,144.105,73.126L144.105,73.126z M104.454,69.343l0.029,10.184
				c0.003,0.925,0.656,1.298,1.463,0.833l2.977-1.719c-0.844,1.941-1.884,2.972-1.939,3.026c0.205-0.101,0.405-0.208,0.596-0.319
				c2.947-1.701,4.329-4.289,4.401-4.426c0.029-0.019,0.191-0.112,0.452-0.262c1.688-0.975,7.2-4.2,7.491-4.37
				c0.802-0.463,1.456-1.59,1.452-2.517l-0.028-10.183c-0.003-0.921-0.661-1.297-1.464-0.834l-13.976,8.07
				C105.101,67.291,104.451,68.421,104.454,69.343L104.454,69.343z M121.468,102.402l-0.028-10.183
				c-0.003-0.922-0.662-1.297-1.463-0.834l-13.978,8.07c-0.805,0.466-1.455,1.596-1.453,2.516l0.03,10.184
				c0.002,0.926,0.656,1.299,1.464,0.833l2.976-1.719c-0.843,1.941-1.883,2.972-1.939,3.026c0.205-0.101,0.405-0.208,0.598-0.319
				c2.945-1.701,4.327-4.29,4.399-4.426c0.031-0.019,0.192-0.112,0.452-0.261c1.689-0.976,7.2-4.2,7.49-4.371
				C120.818,104.456,121.471,103.328,121.468,102.402L121.468,102.402z"/>
		</g>
		<g>
			<polygon style="fill:#4B8BA0;" points="106.561,54.314 107.199,54.682 105.608,57.432 107.209,58.345 106.576,59.442 
				104.337,58.167 			"/>
		</g>
		<g>
			<path style="fill:#C9C7C7;" d="M102.727,55.595l42.403-24.211v6.99v0.063l-42.383,24.148L102.727,55.595z M107.209,58.345
				l-1.601-0.913l1.59-2.749l-0.637-0.369l-2.225,3.853l2.239,1.276L107.209,58.345L107.209,58.345z"/>
		</g>
		<g>
			<polygon style="fill:#5F95AD;" points="144.957,28.108 145.13,31.384 102.727,55.595 102.718,52.319 			"/>
		</g>
	</g>
</g>
<g>
	<defs>
		<path id="SVGID_85_" d="M200.752,126.841c-0.294,0.389-4.17,18.919-4.17,18.919l-36.91,21.544c0,0-0.091-7.375-0.58-7.473
			c-0.488-0.098-41.922-37.622-41.922-37.622l29.218-24.82L200.752,126.841z"/>
	</defs>
	<clipPath id="SVGID_8_">
		<use xlink:href="#SVGID_85_"  style="overflow:visible;"/>
	</clipPath>
	<g style="clip-path:url(#SVGID_8_);adobe-knockout:true;">
		<g style="adobe-knockout:false;enable-background:new    ;">
			<g style="enable-background:new    ;">
				<g style="enable-background:new    ;">
					<g>
						<path style="fill:#FCF8C7;" d="M190.388,132.847c-8.754-8.685-18.638-11.844-27.159-16.764
							c-6.983-4.032-8.013-6.84-15.146-7.623c-3.168-0.346-11.833,5.259-11.833,5.259c4.561,1.628,11.398,4.196,18.38,8.228
							c8.52,4.919,18.996,11.668,26.302,17.304c0.137,0.108,0.206,0.348,0.397,0.378c3.144,0.518,9.456-6.404,9.456-6.404
							C190.657,133.082,190.511,132.971,190.388,132.847z"/>
					</g>
					<g>
						<path style="fill:#E0D875;" d="M179.679,139.668c0-3.187,11.106-6.442,11.106-6.442c0.295,0.342,0.557,0.783,0.786,1.309
							c0,0-8.994,9.773-12.021,8.781c-0.546-0.18,2.076-3.343,1.779-3.686L179.679,139.668z"/>
					</g>
					<g>
						<path style="fill:#C6BE63;" d="M179.939,141.36c0-3.185,11.631-6.826,11.631-6.826c2.532,5.815,1.057,21.831-1.535,23.164
							l-11.019,6.404c2.59-1.334-0.12-12.97-0.12-20.136L179.939,141.36z"/>
					</g>
				</g>
			</g>
			<g>
				<g>
					<path style="fill:#E0D875;" d="M154.923,121.458c-6.983-4.031-14.332-9.934-18.673-7.738c-1.13,0.642-1.838,3.058-2.182,6.182
						c0.398-1.911,0.994-3.298,1.81-3.762c4.341-2.196,11.69,3.708,18.672,7.739c8.521,4.918,25.424,11.231,24.738,17.002
						c-0.77,6.469,0.904,16.841,0.544,22.238c1.734-3.716,0.408-15.957,1.318-23.308
						C181.862,134.044,163.443,126.377,154.923,121.458z"/>
				</g>
				<g>
					<path style="fill:#D0C665;" d="M179.288,140.881c0.686-5.771-16.217-12.084-24.738-17.002
						c-6.982-4.031-14.331-9.935-18.672-7.739c-0.816,0.464-1.413,1.852-1.81,3.762c-0.452,4.096-0.276,9.408,0.408,13.55
						c0.401,2.433,1.621,5.498,5.428,7.897c9.136,5.751,17.004,10.616,24.598,15.001c4.834,2.791,9.576,5.358,14.516,7.752
						c0.329-0.17,0.595-0.513,0.815-0.983C180.192,157.722,178.518,147.35,179.288,140.881z"/>
				</g>
			</g>
		</g>
	</g>
</g>
<path style="opacity:0.46;fill:#5F6771;adobe-blending-mode:multiply;" d="M177.741,125.296c-4.448-2.226-4.804-7.718-13.014-5.952
	c-1.457,0.842-5.175,10.724-5.009,13.047c0.086,1.172,1.322,2.488,1.544,4.479c0.265,2.376,0.12,4.679-2.316,6.023
	c-0.12,0.066-2.187,0.49-2.471,0.617c1.637,1.828,3.227,4.068,4.849,6.044c-4.782,0.209-11.09,0.557-14.555,0.583
	c0.012-0.045,0.025-0.089,0.038-0.135c1.008-3.46-9.372-9.975-11.117-3.273c-0.89,3.406-1.484,6.641-2.031,9.924l-8.636,21.241
	c0,0-2.011,3.034-4.309,4.054c-0.339,0.15-1.44,0.489-2.683,0.854c-1.042,0.156-4.068,0.635-6.317,1.256
	c-2.153,0.594-3.081,1.894-3.081,1.894c-0.144,0.267-0.31,0.739-0.272,1.27c-0.026,0.129-0.05,0.258-0.067,0.375
	c-0.187,1.331,0.834,2.011,2.067,2.601c1.914,0.916,9.271,0.238,12.6-0.359c1.36-0.243,1.743-0.836,2.008-1.467l0,0
	c0.002-0.002,0.002-0.005,0.003-0.008c0.022-0.051,0.043-0.102,0.063-0.154c2.59-0.808,5.622-2.193,7.813-3.403
	c1.735-0.959,1.682-1.947,1.735-2.924c0.024-0.418-0.155-0.696-0.376-0.884c0.58-1.089,0.954-2.895,0.954-2.895
	s3.186-5.452,5.998-11.527c1.023-1.678,1.836-3.195,2.252-4.296c0.691-1.823,3.508-3.255,4.274-3.313
	c2.563-0.197,9.448,1.221,11.877,1.376c4.833,0.309,12.537,2.132,14.507-6.096c0.113-0.027,1.949-7.381,2.049-7.408
	c0.075-0.518,3.706-1.622,8.571-3.243c5.656-1.886-2.01-9.768-5.328-14.363C173.34,120.895,180.092,126.95,177.741,125.296z"/>
<path style="fill:#E4B99B;" d="M147.943,137.835c3.277,1.706,7.876-4.285,7.876-4.285s12.356-15.38,10.231-16.073
	c-2.252-0.734-5.985-0.212-8.265,2.487c-4.31,5.102-8.301,10.766-10.604,13.674L147.943,137.835z"/>
<path style="fill:#AD9A86;" d="M157.325,142.173c-12.277-1.21-22.625-3.681-24.324,1.725l11.651,11.66
	c2.691-1.58,7.013-2.363,9.877-3.143c3.742-1.019,8.951-1.01,8.951-1.01C163.199,146.555,160.949,142.53,157.325,142.173z"/>
<path style="fill:#E0CFB3;" d="M121.303,185.091c0.129,0.043,0.885,0.515,0.579,1.276c-0.306,0.761-0.529,1.559-2.164,1.852
	c-3.33,0.598-10.687,1.275-12.6,0.359c-1.232-0.59-2.254-1.271-2.066-2.601c0.069-0.484,0.258-1.186,0.258-1.186l11.911-0.702
	l3.323,0.408L121.303,185.091z"/>
<path style="fill:#CDAF88;" d="M120.802,183.911l-0.593-0.008l-2.989,0.186l-0.181,0.007l-9.664,1.459l1.132,2.672
	c0,0,10.318-0.474,11.918-0.901c0.7-0.187,1.088-0.364,1.301-0.575c0.054-0.128,0.104-0.257,0.155-0.385
	C122.189,185.606,121.265,184.548,120.802,183.911z"/>
<path style="fill:#968270;" d="M163.559,147.785c-3.734-0.085-18.757,0.961-21.975,0.689c-5.82-0.497-10.281,4.381-10.281,4.381
	l-9.523,23.42c0,0-2.011,3.033-4.309,4.054c-0.747,0.331-5.208,1.584-6.726,1.997c-0.039,0.005-2.46,0.448-3.981,1.041
	c-1.218,0.475-1.483,1.458-1.485,2.116c-0.006,1.102,1.852,1.969,3.823,2.153c2.558,0.237,6.436-0.702,6.436-0.702l2.258-0.535
	c0,0,2.952,0.52,3.674-3.081c0.064-0.095,0.637-0.641,0.637-0.641s2.864-1.868,7.189-6.191c3.325-3.325,9.442-12.031,10.875-15.823
	c0.691-1.823,3.508-3.255,4.273-3.313c2.563-0.197,9.448,1.22,11.878,1.375c5.621,0.36,15.135,2.78,14.981-10.965L163.559,147.785z"
	/>
<path style="fill:#CF6161;" d="M105.39,184.331c0,0,0.928-1.3,3.081-1.893c2.76-0.762,6.689-1.31,6.689-1.31
	s1.195,1.261,1.596,2.375c0.817,2.264,0.408,4.157,0.408,4.157s-5.019,0.421-7.024,0.532c-2.487,0.138-3.489-0.297-4.417-1.262
	C104.796,185.963,105.131,184.813,105.39,184.331z"/>
<path style="fill:#D42E2D;" d="M176.826,120.931c-4.448-2.227-7.132-4.974-15.342-3.208c-1.457,0.842-5.175,10.724-5.009,13.047
	c0.085,1.173,1.322,2.488,1.545,4.479c0.265,2.376,0.12,4.679-2.317,6.024c-0.12,0.066-2.187,0.491-2.471,0.617
	c3.555,3.968,6.884,9.887,10.811,10.811c2.625,0.618,5.628,0.255,7.104-0.155c0.076-0.518,0,0.309,1.544-4.787
	c1.729-5.705,2.649-9.566,4.324-14.981C179.251,125.55,179.178,122.585,176.826,120.931z"/>
<path style="fill:#E4B99B;" d="M174.878,119.893c-2.476-1.486-5.988-3.157-7.956-2.855c-1.499,0.232-0.911-0.105-1.721,0.064
	c-0.974,1.093-2.799,4.596-2.895,6.139c-0.116,1.853,1.05,3.432,2.432,3.475C171.379,126.94,173.078,122.778,174.878,119.893z"/>
<path style="fill:#E4B99B;" d="M171.712,120.923c0,0,1.826-7.297,3.084-9.109c0.987-1.422-6.521-1.332-6.521-1.332l-2.237,8.32
	L171.712,120.923z"/>
<path style="fill:#E4B99B;" d="M171.53,97.414c-4.088-1.523-6.468,2.779-7.415,5.004c-0.666,1.559-2.008,5.007-2.008,5.007
	c-0.874,2.493-1.048,3.894,0.295,5.008c1.68,1.387,7.215,1.924,9.691,1.062c3.037-1.057,2.802-3.869,2.985-4.205l-0.968-4.392
	C174.111,104.897,173.702,98.22,171.53,97.414z"/>
<path style="fill:#2D2117;" d="M169.481,110.232c-1.257,5.813-2.694,6.896-3.756,7.88c-0.293,0.27,2.056,0.668,4.112,0.69
	c3.45,0.035,6.76-1.242,6.76-1.242s3.959-3.383,4.964-9.022c0.959-5.373-1.879-10.333-8.29-11.728
	c-4.275-0.931-7.23,0.871-6.5,2.546C167.908,101.964,170.692,104.628,169.481,110.232z"/>
<path style="fill:#E4B99B;" d="M167.019,141.877c0,0-5.309,2.659-6.18,5.967c-0.622,2.361-0.459,3.335-0.459,3.335
	s-0.196,0.788,0.851,0.914c0.661,0.08,1.662,0.135,2.239-0.552c1.064-1.268,0.856-1.555,2.153-2.705
	c1.087-0.964,2.529-1.509,3.101-2.8C170.034,143.085,167.019,141.877,167.019,141.877z"/>
<path style="fill:#E4B99B;" d="M175.876,121.884c1.743-0.804,3.441-0.965,5.681,5.166c1.141,3.126,2.422,6.902,3.946,12.55
	c0.521,1.93-0.976,3.285-3.397,3.965c-5.054,1.42-11.997,0.521-13.763,1.135c-1.114,0.387-1.953-2.493-1.953-2.493
	s1.51-0.945,3.044-1.421c3.811-1.183,10.008-2.643,9.978-2.752c-0.102-0.382-2.09-3.613-2.09-3.613s-1.845-3.263-2.999-6.361
	C172.799,123.947,174.431,122.551,175.876,121.884z"/>
<path style="fill:#E0CFB3;" d="M130.197,179.041c0.163,0,1.2,0.243,1.145,1.222c-0.054,0.978,0,1.965-1.736,2.924
	c-3.538,1.955-9.271,4.367-11.787,4.066c-1.62-0.195-3.036-0.573-3.334-2.149c-0.109-0.575-0.164-1.44-0.164-1.44l10.873-4.188
	l3.914-0.815L130.197,179.041z"/>
<path style="fill:#CDAF88;" d="M130.197,179.041l-1.088-0.38l-3.914,0.815l-0.202,0.079l-8.042,4.18l4.431,2.284
	c0,0,7.036-3.015,8.681-4.11c0.72-0.482,1.09-0.831,1.251-1.153c0.011-0.164,0.019-0.328,0.027-0.492
	C131.396,179.284,130.36,179.041,130.197,179.041z"/>
<path style="fill:#AD9A86;" d="M143.564,148.382c-0.676,2.311-0.297,3.955-4.213,13.327c-3.022,7.229-7.432,14.774-7.432,14.774
	s-0.396,1.912-1.004,2.988c-0.516,0.914-2.356,0.878-7.323,3.586c-2.498,1.358-6.737-1.333-6.737-1.333s5.323-3.637,7.519-5.137
	c1.919-1.309,2.714-4.353,2.714-4.353c2.728-10.49,3.032-18.221,5.358-27.125C134.193,138.407,144.573,144.921,143.564,148.382z"/>
<path style="fill:#F3D4BE;" d="M127.222,171.702c-0.045,0.179-0.086,0.352-0.133,0.532c0,0-0.796,3.043-2.714,4.353
	c-2.196,1.5-7.519,5.137-7.519,5.137s4.24,2.692,6.737,1.333c4.968-2.708,6.807-2.672,7.323-3.586
	c0.609-1.076,1.004-2.988,1.004-2.988s0.917-1.571,2.201-3.961C132.026,172.338,129.633,172.076,127.222,171.702z"/>
<path style="fill:#EC8B8B;" d="M116.006,181.162c1.323-1.156,4.948-3.426,5.872-3.862c0.924-0.435,2.094-0.269,3.208,0.816
	c2.175,2.12,2.596,5.069,2.596,5.069s-2.677,1.446-6.076,2.761c-2.859,1.104-6.786,0.339-7.25-1.642
	C114.16,183.46,114.593,182.396,116.006,181.162z"/>
<g>
	<g>
		<path style="fill:#E1E1E1;" d="M161.704,114.123c1.525,0.88,1.533,2.308,0.018,3.188c-1.515,0.88-3.98,0.88-5.505,0
			c-1.524-0.88-1.533-2.308-0.018-3.188C157.714,113.243,160.179,113.243,161.704,114.123z"/>
		<path style="fill:#CECCCB;" d="M161.596,114.189c1.465,0.811,1.472,2.127,0.018,2.937c-1.454,0.811-3.821,0.811-5.285,0
			c-1.464-0.81-1.472-2.126-0.017-2.937C157.766,113.378,160.133,113.378,161.596,114.189z"/>
		<path style="fill:#CC3733;" d="M161.85,114.109c1.679,1.037,1.764,2.603,0.084,3.579c-2.648,1.539-7.171,0.42-7.165-1.728
			C154.873,113.457,159.517,112.716,161.85,114.109c-0.038-0.022-0.089-0.019-0.146,0.014c-1.524-0.88-3.989-0.88-5.504,0
			c-1.514,0.88-1.506,2.308,0.018,3.188c1.525,0.88,3.99,0.881,5.505,0c1.514-0.88,1.507-2.308-0.018-3.188
			C161.76,114.09,161.812,114.087,161.85,114.109L161.85,114.109z"/>
	</g>
	<path style="fill:#AB362D;" d="M161.934,117.688c-2.641,1.535-7.171,0.426-7.165-1.728l-0.007,1.644
		c0,1.574,0.859,2.536,1.524,3.219c0.251,0.257,0.389,0.604,0.387,0.963v0.049c0,0.121,0.028,0.242,0.085,0.359l0,0l0,0
		c0.103,0.214,0.299,0.415,0.589,0.582c0.894,0.516,2.34,0.516,3.228,0c0.442-0.257,0.663-0.592,0.663-0.928v-0.049
		c0.001-0.351,0.196-0.665,0.458-0.899c0.712-0.637,1.447-1.818,1.447-3.272l0.007-1.644
		C163.15,116.601,162.744,117.217,161.934,117.688z"/>
	<path style="fill:#F1EEEC;" d="M161.596,114.189c-0.362-0.201-0.781-0.352-1.226-0.453c0,0,0.278,1.026,0.278,2.172
		c0,1.146-0.278,1.677-0.278,1.677c0.453-0.102,0.878-0.254,1.244-0.459C163.067,116.316,163.061,114.999,161.596,114.189z"/>
	<path style="fill:#512D17;" d="M156.375,116.14c-0.283,0.155-0.51,0.329-0.684,0.515c0.167,0.169,0.38,0.328,0.638,0.471
		c1.464,0.812,3.83,0.812,5.285,0c0.308-0.172,0.549-0.366,0.726-0.573c-0.159-0.147-0.355-0.287-0.587-0.413
		C160.262,115.327,157.855,115.327,156.375,116.14z"/>
	<path style="fill:#683517;" d="M161.614,117.126c0.14-0.078,0.265-0.161,0.378-0.247c-0.065-0.078-0.147-0.155-0.251-0.228
		c-0.843-0.588-1.976-0.656-1.976-0.656s0.68,0.229,0.818,1.105c0.024,0.15,0.003,0.301-0.042,0.444
		C160.929,117.444,161.293,117.305,161.614,117.126z"/>
</g>
<path style="fill:#F4D7C4;" d="M147.234,137.649c0,0-2.352-2.223-0.231-5.762c2.122-3.539,5.934-7.934,5.934-7.934l-0.793-2.933
	c0,0-0.595-1.245,0.623-2.31c1.218-1.064,2.947-1.449,2.947-1.449s1.15-0.217,1.698,0.639c0.549,0.856,0.863,1.625,0.863,1.625
	l-2.928,1.282c0,0,1.007,1.74,0.393,2.865c-0.615,1.125-1.402,8.865-3.219,11.183C150.705,137.174,148.666,138.714,147.234,137.649z
	"/>
<ellipse style="opacity:0.46;fill:#5F6771;adobe-blending-mode:multiply;" cx="237.783" cy="192.59" rx="10.377" ry="6.154"/>
</svg>
